module gitlab.com/factorio-item-browser/factorio-translator.git

go 1.19

require (
	github.com/stretchr/testify v1.8.0
	golang.org/x/exp v0.0.0-20220722155223-a9213eeb770e
)

require (
	github.com/davecgh/go-spew v1.1.1 // indirect
	github.com/pmezard/go-difflib v1.0.0 // indirect
	github.com/stretchr/objx v0.4.0 // indirect
	gopkg.in/yaml.v3 v3.0.1 // indirect
)
